\relax 
\citation{mishra2016survey}
\citation{kolomiyets2011}
\citation{green1961baseball}
\citation{woods1973progress}
\citation{androutsopoulos1993masque}
\citation{hovy2000question}
\citation{kwok2001scaling}
\citation{zheng2002answerbus}
\citation{yih2016}
\@writefile{toc}{\contentsline {section}{\numberline {1}Introduction}{2}}
\@writefile{toc}{\contentsline {subsection}{\numberline {1.1}History of Question Answering}{2}}
\citation{yih2016}
\citation{yih2016}
\citation{green1961baseball}
\citation{woods1978semantics}
\citation{zelle1996learning}
\citation{riloff2000rule}
\@writefile{toc}{\contentsline {subsection}{\numberline {1.2}Example Use Cases}{3}}
\@writefile{toc}{\contentsline {section}{\numberline {2}Approaches to Question Answering}{3}}
\@writefile{toc}{\contentsline {subsection}{\numberline {2.1}Knowledge-based Question Answering}{3}}
\@writefile{toc}{\contentsline {subsubsection}{\numberline {2.1.1}Rule-based Methods}{3}}
\citation{zelle1996learning}
\citation{jurafskynlp}
\citation{handbook2010}
\citation{yih2016}
\citation{kolomiyets2011}
\citation{jurafskynlp}
\citation{jurafskynlp}
\citation{jurafskynlp}
\citation{handbook2010}
\citation{kolomiyets2011}
\citation{jurafskynlp}
\citation{handbook2010}
\citation{handbook2010}
\@writefile{toc}{\contentsline {subsubsection}{\numberline {2.1.2}Supervised Methods}{4}}
\@writefile{toc}{\contentsline {subsubsection}{\numberline {2.1.3}Semi-supervised Methods}{4}}
\@writefile{toc}{\contentsline {subsection}{\numberline {2.2}IR-based Question Answering}{4}}
\@writefile{toc}{\contentsline {subsubsection}{\numberline {2.2.1}Question Processing}{4}}
\citation{kolomiyets2011}
\citation{jurafskynlp}
\citation{handbook2010}
\citation{jurafskynlp}
\citation{jurafskynlp}
\citation{handbook2010}
\citation{jurafskynlp}
\citation{jurafskynlp}
\citation{handbook2010}
\citation{jurafskynlp}
\citation{jurafskynlp}
\citation{jurafskynlp}
\citation{ferrucci2012}
\citation{weston2015}
\citation{yih2016}
\@writefile{toc}{\contentsline {subsubsection}{\numberline {2.2.2}Document/Passage Selection}{5}}
\@writefile{toc}{\contentsline {subsubsection}{\numberline {2.2.3}Answer Extraction}{5}}
\@writefile{toc}{\contentsline {subsection}{\numberline {2.3}Machine Comprehension Oriented Question Answering}{5}}
\citation{richardson2013}
\citation{hermann2015}
\citation{weston2015}
\citation{kumar2015}
\citation{kumar2015}
\citation{xiong2016}
\citation{xiong2016}
\citation{jurafskynlp}
\citation{rajpurkar2016}
\citation{jurafskynlp}
\citation{handbook2010}
\citation{handbook2010}
\citation{handbook2010}
\citation{kolomiyets2011}
\citation{rajpurkar2016}
\citation{hermann2015}
\citation{weston2015}
\@writefile{toc}{\contentsline {section}{\numberline {3}Evaluation of QA Systems}{7}}
\@writefile{toc}{\contentsline {section}{\numberline {4}Question Answering in Non-English Languages}{7}}
\citation{penas2012question}
\citation{penas2015overview}
\citation{weston2015}
\citation{weston2015}
\citation{xiong2016}
\citation{yih2016}
\citation{berant2013}
\citation{xu2016}
\citation{cai2013}
\citation{abujabal2017}
\citation{rajpurkar2016}
\citation{yang2015}
\citation{miao2016}
\citation{richardson2013}
\citation{smith2015}
\citation{weston2015}
\citation{xiong2016}
\@writefile{toc}{\contentsline {section}{\numberline {5}Popular Datasets, Success Rates and Frequently Used Databases}{8}}
\@writefile{toc}{\contentsline {subsection}{\numberline {5.1}Popular Datasets and Success Rates}{8}}
\@writefile{toc}{\contentsline {subsubsection}{\numberline {5.1.1}In Knowledge-based Question Answering Systems}{8}}
\@writefile{toc}{\contentsline {subsubsection}{\numberline {5.1.2}In IR-based Question Answering Systems}{8}}
\citation{bollacker2008freebase}
\citation{lehmann2015dbpedia}
\citation{farber2015comparative}
\citation{farber2015comparative}
\citation{baudivs2015yodaqa}
\citation{schlaefer2007semantic}
\@writefile{toc}{\contentsline {subsubsection}{\numberline {5.1.3}In Machine Comprehension Oriented Answering Systems}{9}}
\@writefile{toc}{\contentsline {subsection}{\numberline {5.2}Frequently Used Databases}{9}}
\@writefile{toc}{\contentsline {section}{\numberline {6}Systems and Tools Currently Used}{9}}
\citation{mishra2010qme}
\bibstyle{plain}
\@writefile{toc}{\contentsline {section}{\numberline {7}Conclusion}{10}}
\bibdata{references}
\bibcite{richardson2013}{{1}{}{{}}{{}}}
\bibcite{abujabal2017}{{2}{}{{}}{{}}}
\bibcite{androutsopoulos1993masque}{{3}{}{{}}{{}}}
\bibcite{baudivs2015yodaqa}{{4}{}{{}}{{}}}
\bibcite{berant2013}{{5}{}{{}}{{}}}
\bibcite{bollacker2008freebase}{{6}{}{{}}{{}}}
\bibcite{cai2013}{{7}{}{{}}{{}}}
\bibcite{jurafskynlp}{{8}{}{{}}{{}}}
\bibcite{farber2015comparative}{{9}{}{{}}{{}}}
\bibcite{ferrucci2012}{{10}{}{{}}{{}}}
\bibcite{green1961baseball}{{11}{}{{}}{{}}}
\bibcite{hermann2015}{{12}{}{{}}{{}}}
\bibcite{hovy2000question}{{13}{}{{}}{{}}}
\bibcite{kolomiyets2011}{{14}{}{{}}{{}}}
\bibcite{kumar2015}{{15}{}{{}}{{}}}
\bibcite{kwok2001scaling}{{16}{}{{}}{{}}}
\bibcite{lehmann2015dbpedia}{{17}{}{{}}{{}}}
\bibcite{miao2016}{{18}{}{{}}{{}}}
\bibcite{mishra2016survey}{{19}{}{{}}{{}}}
\bibcite{mishra2010qme}{{20}{}{{}}{{}}}
\bibcite{handbook2010}{{21}{}{{}}{{}}}
\bibcite{penas2012question}{{22}{}{{}}{{}}}
\bibcite{penas2015overview}{{23}{}{{}}{{}}}
\bibcite{rajpurkar2016}{{24}{}{{}}{{}}}
\bibcite{riloff2000rule}{{25}{}{{}}{{}}}
\bibcite{schlaefer2007semantic}{{26}{}{{}}{{}}}
\bibcite{smith2015}{{27}{}{{}}{{}}}
\bibcite{weston2015}{{28}{}{{}}{{}}}
\bibcite{woods1973progress}{{29}{}{{}}{{}}}
\bibcite{woods1978semantics}{{30}{}{{}}{{}}}
\bibcite{xiong2016}{{31}{}{{}}{{}}}
\bibcite{xu2016}{{32}{}{{}}{{}}}
\bibcite{yang2015}{{33}{}{{}}{{}}}
\bibcite{yih2016}{{34}{}{{}}{{}}}
\bibcite{zelle1996learning}{{35}{}{{}}{{}}}
\bibcite{zheng2002answerbus}{{36}{}{{}}{{}}}
\providecommand\NAT@force@numbers{}\NAT@force@numbers
